<svg width="16" height="16" viewBox="0 0 16 16" fill="none" xmlns="http://www.w3.org/2000/svg">
<path d="M2.02514 2.66977C1.70013 3.01799 1.44232 3.43139 1.26642 3.88636C1.09053 4.34133 1 4.82897 1 5.32143C1 5.81388 1.09053 6.30152 1.26642 6.75649C1.44232 7.21146 1.70013 7.62486 2.02514 7.97308L8.00001 14.3747L13.9749 7.97308C14.6313 7.26982 15 6.31599 15 5.32143C15 4.32686 14.6313 3.37303 13.9749 2.66977C13.3185 1.96651 12.4283 1.57142 11.5 1.57142C10.5717 1.57142 9.68149 1.96651 9.02511 2.66977L8.00001 3.7681L6.9749 2.66977C6.64989 2.32155 6.26406 2.04532 5.83941 1.85687C5.41477 1.66841 4.95965 1.57141 4.50002 1.57141C4.04039 1.57141 3.58526 1.66841 3.16062 1.85687C2.73598 2.04532 2.35014 2.32155 2.02514 2.66977V2.66977Z" stroke="#77B7FF" stroke-width="1.5" stroke-linecap="round" stroke-linejoin="round"/>
</svg>
