<svg width="20" height="16" viewBox="0 0 20 16" fill="none" xmlns="http://www.w3.org/2000/svg">
<path d="M0 2C0 0.895431 0.895431 0 2 0H18C19.1046 0 20 0.895431 20 2V14C20 15.1046 19.1046 16 18 16H2C0.895431 16 0 15.1046 0 14V2Z" fill="url(#paint0_linear_216_1224)"/>
<defs>
<linearGradient id="paint0_linear_216_1224" x1="0" y1="0" x2="20" y2="0" gradientUnits="userSpaceOnUse">
<stop stop-color="#007AE1"/>
<stop offset="1" stop-color="#5CC9E9"/>
</linearGradient>
</defs>
</svg>
