<svg width="9" height="7" viewBox="0 0 9 7" fill="none" xmlns="http://www.w3.org/2000/svg">
<path d="M0 3.5C0 1.567 1.567 0 3.5 0H5.5C7.433 0 9 1.567 9 3.5C9 5.433 7.433 7 5.5 7H3.5C1.567 7 0 5.433 0 3.5Z" fill="url(#paint0_linear_219_389)"/>
<defs>
<linearGradient id="paint0_linear_219_389" x1="0" y1="6.9999" x2="9" y2="6.9999" gradientUnits="userSpaceOnUse">
<stop stop-color="#007AFF"/>
<stop offset="1" stop-color="#7CE5E0"/>
</linearGradient>
</defs>
</svg>
