<svg width="252" height="7" viewBox="0 0 252 7" fill="none" xmlns="http://www.w3.org/2000/svg">
<path d="M0 3.5C0 1.567 1.567 0 3.5 0H248.5C250.433 0 252 1.567 252 3.5C252 5.433 250.433 7 248.5 7H3.5C1.56701 7 0 5.433 0 3.5Z" fill="url(#paint0_linear_219_459)"/>
<defs>
<linearGradient id="paint0_linear_219_459" x1="0" y1="6.9999" x2="252" y2="6.9999" gradientUnits="userSpaceOnUse">
<stop stop-color="#007AFF"/>
<stop offset="1" stop-color="#7CE5E0"/>
</linearGradient>
</defs>
</svg>
