<svg width="13" height="13" viewBox="0 0 13 13" fill="none" xmlns="http://www.w3.org/2000/svg">
<path d="M4.125 3.5V1V3.5ZM9.125 3.5V1V3.5ZM3.5 6H9.75H3.5ZM2.25 12.25H11C11.3315 12.25 11.6495 12.1183 11.8839 11.8839C12.1183 11.6495 12.25 11.3315 12.25 11V3.5C12.25 3.16848 12.1183 2.85054 11.8839 2.61612C11.6495 2.3817 11.3315 2.25 11 2.25H2.25C1.91848 2.25 1.60054 2.3817 1.36612 2.61612C1.1317 2.85054 1 3.16848 1 3.5V11C1 11.3315 1.1317 11.6495 1.36612 11.8839C1.60054 12.1183 1.91848 12.25 2.25 12.25Z" stroke="#01346C" stroke-width="1.2" stroke-linecap="round" stroke-linejoin="round"/>
</svg>
